…
    ## 19      0         8.00      0         0         0         0         0   
    ## # ... with 12 more variables: adenoma_8 <dbl>, adenoma_9 <dbl>,
    ## #   carcinoma_1 <dbl>, carcinoma_10 <dbl>, carcinoma_2 <dbl>,
    ## #   carcinoma_3 <dbl>, carcinoma_5 <dbl>, carcinoma_6 <dbl>,
    ## #   carcinoma_7 <dbl>, carcinoma_8 <dbl>, carcinoma_9_distal <dbl>,
    ## #   carcinoma_9_proximal <dbl>
    ## 
    ## Median per cluster:
    ##  C2  C1  C3 
    ## 0.7 0.9 0.7 
    ## 
    ## -------------------------------
    ## Edge frequency across resamples
    ## -------------------------------
    ## # A tibble: 21 x 3
    ##    from  to     count
    ##  * <chr> <chr>  <dbl>
    ##  1 GL    APC    1.00 
    ##  2 GL    FBXW7  1.00 
    ##  3 GL    TCF7L2 1.00 
    ##  4 APC   TP53   0.900
    ##  5 APC   KRAS   0.900
    ##  6 APC   PIK3CA 0.900
    ##  7 FBXW7 PIK3CA 0.900
    ##  8 KRAS  PIK3CA 0.900
    ##  9 GL    AMER1  0.900
    ## 10 KMT2C PIK3CA 0.900
    ## # ... with 11 more rows
…
