…
    ##  [ REVOLVER Cohort Constructor for version 1.0 ~ "Haggis and tatties" ] 
    ##   Use only alterations annotated as driver = 0  
    ##   Filter: minimum number of alterations in a group/ cluster = 0  
    ## 
    ## ----------
    ## Input data
    ## ----------
    ## # A tibble: 63 x 7
    ##    Misc    patientID variantID cluster is.driver is.clonal CCF            
    ##  * <chr>   <chr>     <chr>       <dbl> <lgl>     <lgl>     <chr>          
    ##  1 NOTHING adenoma_1 ACVR2A          1 TRUE      TRUE      R1:1;R2:1;R3:1…
    ##  2 NOTHING adenoma_1 APC             1 TRUE      TRUE      R1:1;R2:1;R3:1…
    ##  3 NOTHING adenoma_2 APC             1 TRUE      TRUE      R1:1;R2:1;R3:1…
    ##  4 NOTHING adenoma_2 KRAS            2 TRUE      FALSE     R1:0;R2:0;R3:0…
    ##  5 NOTHING adenoma_2 ARID2           2 TRUE      FALSE     R1:0;R2:0;R3:0…
    ##  6 NOTHING adenoma_2 TP53            3 TRUE      FALSE     R1:1;R2:1;R3:1…
    ##  7 NOTHING adenoma_3 PIK3CA          1 TRUE      FALSE     R1:0;R2:0;R3:0…
    ##  8 NOTHING adenoma_3 FBXW7           2 TRUE      TRUE      R1:1;R2:1;R3:1…
    ##  9 NOTHING adenoma_3 APC             2 TRUE      TRUE      R1:1;R2:1;R3:1…
    ## 10 NOTHING adenoma_3 AKAP9           3 TRUE      FALSE     R1:0;R2:0;R3:1…
    ## # ... with 53 more rows
    ## 
    ## ---------------------
    ## Extracting CCF values
    ## ---------------------
…
And we conclude with the average number of patients harbouring an edge

``` r
revolver_plt_jackknife_edge_counts(fit)
```

    ##  [ REVOLVER Plot: edge counts via jackknife (boxplot) ] 
    ##   Plot edges with mean count above value = 3  
    ##   Output file =  N/A   
    ## 
    ## --------------------------------------------
    ## Number of patients per edge across resamples
    ## --------------------------------------------
    ## # A tibble: 30 x 4
    ##    from  to    edge     count
    ##  * <chr> <chr> <fct>    <dbl>
    ##  1 GL    APC   GL~APC      17
    ##  2 APC   KRAS  APC~KRAS     7
    ##  3 APC   TP53  APC~TP53     6
    ##  4 GL    APC   GL~APC      17
    ##  5 APC   KRAS  APC~KRAS     6
    ##  6 APC   TP53  APC~TP53     6
    ##  7 GL    APC   GL~APC      17
    ##  8 APC   TP53  APC~TP53     7
    ##  9 APC   KRAS  APC~KRAS     6
    ## 10 GL    APC   GL~APC      17
    ## # ... with 20 more rows
…
