…
``` r
revolver_plt_jackknife_coclust(Breast.fit, cutoff.annotate.numbers = 0.7)
```

    ##  [ REVOLVER Plot: co-clustering via jackknife (heatmap) ] 
    ##   Annotate number above value = 0.7  
    ##   Output file =  N/A   
    ## 
    ## --------------------
    ## Co-clustering matrix
    ## --------------------
    ## # A tibble: 50 x 50
    ##    PD9193 PD9694 PD9768 PD9769 PD9770 PD9771 PD9772 PD9773 PD9774 PD9775
    ##     <dbl>  <dbl>  <dbl>  <dbl>  <dbl>  <dbl>  <dbl>  <dbl>  <dbl>  <dbl>
    ##  1      0      0  0      0      0      0      0      0      0      0    
    ##  2      0      0  0      0      0      0      0      0      0      0    
    ##  3      0      0  0      0.001  0.028  0.051  0.435  0.043  0.8    0.026
    ##  4      0      0  0.001  0      0      0.733  0.327  0      0.001  0    
    ##  5      0      0  0.028  0      0      0.038  0.001  0.769  0.03   0.769
    ##  6      0      0  0.051  0.733  0.038  0      0.389  0.042  0.049  0.044
    ##  7      0      0  0.435  0.327  0.001  0.389  0      0.002  0.42   0    
    ##  8      0      0  0.043  0      0.769  0.042  0.002  0      0.045  0.778
    ##  9      0      0  0.8    0.001  0.03   0.049  0.42   0.045  0      0.028
    ## 10      0      0  0.026  0      0.769  0.044  0      0.778  0.028  0    
    ## # ... with 40 more rows, and 40 more variables: PD9776 <dbl>,
    ## #   PD9777 <dbl>, PD9849 <dbl>, PD9850 <dbl>, PD9851 <dbl>, PD9852 <dbl>,
    ## #   PD9853 <dbl>, PD9854 <dbl>, PD12334 <dbl>, PD12335 <dbl>,
    ## #   PD13594 <dbl>, PD13595 <dbl>, PD14492 <dbl>, PD14705 <dbl>,
    ## #   PD14748 <dbl>, PD14749 <dbl>, PD14750 <dbl>, PD14751 <dbl>,
    ## #   PD14753 <dbl>, PD14754 <dbl>, PD14755 <dbl>, PD14756 <dbl>,
    ## #   PD14757 <dbl>, PD14758 <dbl>, PD14759 <dbl>, PD14760 <dbl>,
    ## #   PD14761 <dbl>, PD14762 <dbl>, PD14763 <dbl>, PD14765 <dbl>,
    ## #   PD14767 <dbl>, PD14768 <dbl>, PD14769 <dbl>, PD14770 <dbl>,
…
``` r
revolver_plt_jackknife_edge_prb(Breast.fit)
```

    ##  [ REVOLVER Plot: edge detection probability via jackknife (heatmap) ] 
    ##   Columns ordered by = heterogeneity  
    ##   Annotate number above value = 0.6  
    ##   Output file =  N/A   
    ## 
    ## -----------------------------------
    ## Frequency of edges across resamples
    ## -----------------------------------
    ## # A tibble: 50 x 50
    ##    PD9193 PD9694 PD9768 PD9769 PD9770 PD9771 PD9772 PD9773 PD9774 PD9775
    ##     <dbl>  <dbl>  <dbl>  <dbl>  <dbl>  <dbl>  <dbl>  <dbl>  <dbl>  <dbl>
    ##  1      0      0  0      0      0      0      0      0      0      0    
    ##  2      0      0  0      0      0      0      0      0      0      0    
    ##  3      0      0  0      0.001  0.028  0.051  0.435  0.043  0.8    0.026
    ##  4      0      0  0.001  0      0      0.733  0.327  0      0.001  0    
    ##  5      0      0  0.028  0      0      0.038  0.001  0.769  0.03   0.769
    ##  6      0      0  0.051  0.733  0.038  0      0.389  0.042  0.049  0.044
    ##  7      0      0  0.435  0.327  0.001  0.389  0      0.002  0.42   0    
    ##  8      0      0  0.043  0      0.769  0.042  0.002  0      0.045  0.778
    ##  9      0      0  0.8    0.001  0.03   0.049  0.42   0.045  0      0.028
    ## 10      0      0  0.026  0      0.769  0.044  0      0.778  0.028  0    
    ## # ... with 40 more rows, and 40 more variables: PD9776 <dbl>,
    ## #   PD9777 <dbl>, PD9849 <dbl>, PD9850 <dbl>, PD9851 <dbl>, PD9852 <dbl>,
    ## #   PD9853 <dbl>, PD9854 <dbl>, PD12334 <dbl>, PD12335 <dbl>,
    ## #   PD13594 <dbl>, PD13595 <dbl>, PD14492 <dbl>, PD14705 <dbl>,
    ## #   PD14748 <dbl>, PD14749 <dbl>, PD14750 <dbl>, PD14751 <dbl>,
    ## #   PD14753 <dbl>, PD14754 <dbl>, PD14755 <dbl>, PD14756 <dbl>,
    ## #   PD14757 <dbl>, PD14758 <dbl>, PD14759 <dbl>, PD14760 <dbl>,
    ## #   PD14761 <dbl>, PD14762 <dbl>, PD14763 <dbl>, PD14765 <dbl>,
    ## #   PD14767 <dbl>, PD14768 <dbl>, PD14769 <dbl>, PD14770 <dbl>,
…
``` r
revolver_plt_jackknife_edge_counts(Breast.fit, cutoff.annotate.numEdges = 4)
```

    ##  [ REVOLVER Plot: edge counts via jackknife (boxplot) ] 
    ##   Plot edges with mean count above value = 4  
    ##   Output file =  N/A   
    ## 
    ## --------------------------------------------
    ## Number of patients per edge across resamples
    ## --------------------------------------------
    ## # A tibble: 19,971 x 4
    ##    from  to           edge             count
    ##  * <chr> <chr>        <fct>            <dbl>
    ##  1 GL    TP53         GL~TP53             23
    ##  2 TP53  +8q          TP53~+8q            13
    ##  3 -16q  +8q          -16q~+8q            12
    ##  4 -16q  -17p         -16q~-17p           12
    ##  5 GL    -16q         GL~-16q             12
    ##  6 -17p  +1q          -17p~+1q            12
    ##  7 TP53  -17p         TP53~-17p           10
    ##  8 TP53  -8p          TP53~-8p             7
    ##  9 TP53  +1q          TP53~+1q             6
    ## 10 +8q   amp(8q24.21) +8q~amp(8q24.21)     6
    ## # ... with 19,961 more rows
…
