…
``` r
devtools::install_github("caravagn/revolver")
```

## Preliminaries: data preparation, adding Copy Number to SNVs

We first prepared an RData copy of Appendix 2 releases in [Jamal-Hanjani
et al; NEJM 2017](http://www.nejm.org/doi/full/10.1056/NEJMoa1616288)

``` r
load('[Data] TRACERx.appendix2.Rdata')
tibble::as.tibble(data)
```

    ## # A tibble: 76,831 x 26
    ##    MutationID   SampleID   chr  start   stop ref   var   Hugo_Symbol func 
    ##    <chr>        <chr>    <int>  <int>  <int> <chr> <chr> <chr>       <chr>
    ##  1 CRUK0062:23… CRUK0062    23 7.93e7 7.93e7 C     A     TBX22       intr…
    ##  2 CRUK0062:23… CRUK0062    23 1.82e7 1.82e7 T     C     BEND2       intr…
    ##  3 CRUK0062:3:… CRUK0062     3 4.93e6 4.93e6 A     G     ITPR1       inte…
    ##  4 CRUK0062:23… CRUK0062    23 1.24e8 1.24e8 C     T     TENM1       exon…
    ##  5 CRUK0062:16… CRUK0062    16 7.18e7 7.18e7 G     A     PHLPP2      intr…
    ##  6 CRUK0062:2:… CRUK0062     2 2.88e7 2.88e7 T     C     PLB1        intr…
    ##  7 CRUK0062:3:… CRUK0062     3 8.82e6 8.82e6 G     T     OXTR        inte…
    ##  8 CRUK0062:2:… CRUK0062     2 2.79e7 2.79e7 C     A     GPN1        intr…
    ##  9 CRUK0062:5:… CRUK0062     5 1.78e8 1.78e8 C     A     CLK4        intr…
    ## 10 CRUK0062:23… CRUK0062    23 8.61e7 8.61e7 G     A     DACH2       intr…
    ## # ... with 76,821 more rows, and 17 more variables: exonic.func <chr>,
    ## #   GL_VAF <dbl>, GL_nAlt <int>, GL_depth <int>, ITHState <int>,
    ## #   RegionSum <chr>, PyClonePhyloCluster <int>, PyClonePhyloCCF <chr>,
    ## #   PhyloCCF <chr>, MutCPN <chr>, MinorCPN <chr>, MajorCPN <chr>,
    ## #   PyClonePhyloClonal <chr>, ObsPyCloneCCF <chr>,
    ## #   ObsPyCloneCluster <int>, ObsPyCloneClonality <chr>, DriverMut <lgl>
…
    ##  [ REVOLVER Cohort Constructor for version 1.0 ~ "Haggis and tatties" ] 
    ##   Use only alterations annotated as driver = 0  
    ##   Filter: minimum number of alterations in a group/ cluster = 10  
    ## 
    ## ----------
    ## Input data
    ## ----------
    ## # A tibble: 68,295 x 7
    ##    Misc      patientID variantID cluster is.driver is.clonal CCF          
    ##  * <chr>     <chr>     <chr>       <int> <lgl>     <lgl>     <chr>        
    ##  1 CRUK0062… CRUK0062  ITPR1           4 FALSE     TRUE      R1:0.99;R2:0…
    ##  2 CRUK0062… CRUK0062  PHLPP2          4 FALSE     TRUE      R1:0.99;R2:0…
    ##  3 CRUK0062… CRUK0062  PLB1            4 FALSE     TRUE      R1:0.99;R2:0…
    ##  4 CRUK0062… CRUK0062  OXTR            4 FALSE     TRUE      R1:0.99;R2:0…
    ##  5 CRUK0062… CRUK0062  GPN1            4 FALSE     TRUE      R1:0.99;R2:0…
    ##  6 CRUK0062… CRUK0062  CLK4           25 FALSE     FALSE     R1:0.94;R2:0…
    ##  7 CRUK0062… CRUK0062  ALLC            4 FALSE     TRUE      R1:0.99;R2:0…
    ##  8 CRUK0062… CRUK0062  WDFY3           3 FALSE     FALSE     R1:0;R2:0;R3…
    ##  9 CRUK0062… CRUK0062  APBB2          11 FALSE     FALSE     R1:0.08;R2:0…
    ## 10 CRUK0062… CRUK0062  DBP             4 FALSE     TRUE      R1:0.99;R2:0…
    ## # ... with 68,285 more rows
    ## 
    ## ---------------------------------
    ## Checking size of groups/ clusters
    ## ---------------------------------
    ## Rows before filtering: 68295 
    ## 
    ## # A tibble: 93 x 7
    ##    Misc        patientID variantID cluster is.driver is.clonal CCF        
    ##  * <chr>       <chr>     <chr>       <int> <lgl>     <lgl>     <chr>      
    ##  1 CRUK0001:2… CRUK0001  ARHGEF4        12 FALSE     FALSE     R1:0.9;R2:…
    ##  2 CRUK0001:2… CRUK0001  LPIN1          13 FALSE     FALSE     R1:0.9;R2:…
    ##  3 CRUK0001:1… CRUK0001  PTPRQ          14 FALSE     FALSE     R1:0.9;R2:…
    ##  4 CRUK0001:8… CRUK0001  EIF3E          15 FALSE     FALSE     R1:0.89;R2…
    ##  5 CRUK0001:8… CRUK0001  COL22A1        16 FALSE     FALSE     R1:0.9;R2:…
    ##  6 CRUK0001:2… CRUK0001  EML4           17 FALSE     FALSE     R1:0.9;R2:…
    ##  7 CRUK0001:2… CRUK0001  PPP4R1L        18 FALSE     FALSE     R1:0.91;R2…
    ##  8 CRUK0001:4… CRUK0001  NKX3-2         19 FALSE     FALSE     R1:0.91;R2…
    ##  9 CRUK0001:2… CRUK0001  ZFP64          20 FALSE     FALSE     R1:0.91;R2…
    ## 10 CRUK0001:1… CRUK0001  USP1           21 FALSE     FALSE     R1:0.83;R2…
    ## # ... with 83 more rows
    ## # A tibble: 24 x 7
    ##    Misc        patientID variantID cluster is.driver is.clonal CCF        
    ##  * <chr>       <chr>     <chr>       <int> <lgl>     <lgl>     <chr>      
    ##  1 CRUK0002:1… CRUK0002  WDFY4           8 FALSE     FALSE     R1:0.45;R2…
    ##  2 CRUK0002:3… CRUK0002  CMTM8           8 FALSE     FALSE     R1:0.46;R2…
    ##  3 CRUK0002:1… CRUK0002  C1R             8 FALSE     FALSE     R1:0.45;R2…
    ##  4 CRUK0002:1… CRUK0002  TEFM            8 FALSE     FALSE     R1:0.43;R2…
    ##  5 CRUK0002:2… CRUK0002  SLC5A4          8 FALSE     FALSE     R1:0.45;R2…
    ##  6 CRUK0002:1… CRUK0002  PEX10           8 FALSE     FALSE     R1:0.78;R2…
    ##  7 CRUK0002:5… CRUK0002  PAPD7           8 FALSE     FALSE     R1:0.54;R2…
    ##  8 CRUK0002:3… CRUK0002  TKT             8 FALSE     FALSE     R1:0.39;R2…
    ##  9 CRUK0002:7… CRUK0002  PCLO            9 FALSE     FALSE     R1:0.01;R2…
    ## 10 CRUK0002:1… CRUK0002  HIST3H2A        9 FALSE     FALSE     R1:0.06;R2…
    ## # ... with 14 more rows
    ## # A tibble: 21 x 7
    ##    Misc       patientID variantID cluster is.driver is.clonal CCF         
    ##  * <chr>      <chr>     <chr>       <int> <lgl>     <lgl>     <chr>       
    ##  1 CRUK0003:… CRUK0003  MIR4529         7 FALSE     FALSE     R1:0;R2:0;R…
    ##  2 CRUK0003:… CRUK0003  SMC3            7 FALSE     FALSE     R1:0;R2:0;R…
    ##  3 CRUK0003:… CRUK0003  RECK            9 FALSE     FALSE     R1:0;R2:0.0…
    ##  4 CRUK0003:… CRUK0003  PDE10A          9 FALSE     FALSE     R1:0;R2:0.0…
    ##  5 CRUK0003:… CRUK0003  TAAR2           9 FALSE     FALSE     R1:0;R2:0.0…
    ##  6 CRUK0003:… CRUK0003  EYA1            9 FALSE     FALSE     R1:0;R2:0.0…
    ##  7 CRUK0003:… CRUK0003  FBXL19          9 FALSE     FALSE     R1:0;R2:0.0…
    ##  8 CRUK0003:… CRUK0003  ARSA            9 FALSE     FALSE     R1:0;R2:0.0…
    ##  9 CRUK0003:… CRUK0003  ZP4             9 FALSE     FALSE     R1:0;R2:0.0…
    ## 10 CRUK0003:… CRUK0003  EBF3            9 FALSE     FALSE     R1:0;R2:0.0…
    ## # ... with 11 more rows
…
    ##  6 CRUK0004:… CRUK0004  EHMT1           7 FALSE     FALSE     R1:0.1;R2:0…
    ##  7 CRUK0004:… CRUK0004  NTRK2           7 FALSE     FALSE     R1:0.04;R2:…
    ##  8 CRUK0004:… CRUK0004  A2M             7 FALSE     FALSE     R1:0.04;R2:…
    ##  9 CRUK0004:… CRUK0004  SRP68           7 FALSE     FALSE     R1:0.04;R2:…
    ## 10 CRUK0004:… CRUK0004  GLYATL3         7 FALSE     FALSE     R1:0.02;R2:…
    ## 11 CRUK0004:… CRUK0004  NR5A2           9 FALSE     FALSE     R1:0.85;R2:…
    ## 12 CRUK0004:… CRUK0004  JAM2            9 FALSE     FALSE     R1:0.84;R2:…
    ## 13 CRUK0004:… CRUK0004  ABCC8           9 FALSE     FALSE     R1:0.85;R2:…
    ## 14 CRUK0004:… CRUK0004  EPC2            9 FALSE     FALSE     R1:0.85;R2:…
    ## 15 CRUK0004:… CRUK0004  UBA7           10 FALSE     FALSE     R1:0.19;R2:…
    ## 16 CRUK0004:… CRUK0004  PTK6           11 FALSE     FALSE     R1:0.29;R2:…
    ## 17 CRUK0004:… CRUK0004  ZNF599         12 FALSE     FALSE     R1:0.86;R2:…
    ## 18 CRUK0004:… CRUK0004  SMOC1          13 FALSE     FALSE     R1:0.96;R2:…
    ## 19 CRUK0004:… CRUK0004  UGT3A2         14 FALSE     FALSE     R1:0.23;R2:…
    ## # A tibble: 55 x 7
    ##    Misc       patientID variantID cluster is.driver is.clonal CCF         
    ##  * <chr>      <chr>     <chr>       <int> <lgl>     <lgl>     <chr>       
    ##  1 CRUK0005:… CRUK0005  CD247          10 FALSE     FALSE     R1:0.84;R2:…
    ##  2 CRUK0005:… CRUK0005  BPIFB3         10 FALSE     FALSE     R1:0.82;R2:…
    ##  3 CRUK0005:… CRUK0005  HEBP1          10 FALSE     FALSE     R1:0.84;R2:…
    ##  4 CRUK0005:… CRUK0005  H2AFZ          10 FALSE     FALSE     R1:0.85;R2:…
    ##  5 CRUK0005:… CRUK0005  CRB1           10 FALSE     FALSE     R1:0.82;R2:…
    ##  6 CRUK0005:… CRUK0005  AP5Z1          10 FALSE     FALSE     R1:0.85;R2:…
    ##  7 CRUK0005:… CRUK0005  PIK3CG         10 FALSE     FALSE     R1:0.85;R2:…
    ##  8 CRUK0005:… CRUK0005  COL15A1        11 FALSE     FALSE     R1:0;R2:0.6…
    ##  9 CRUK0005:… CRUK0005  STARD9         11 FALSE     FALSE     R1:0;R2:0.8…
    ## 10 CRUK0005:… CRUK0005  LCMT1          11 FALSE     FALSE     R1:0;R2:0.4…
    ## # ... with 45 more rows
…
    ##  3 CRUK0008:12:… CRUK0008  PLEKHG7         5 FALSE     FALSE     R1:0.25;…
    ##  4 CRUK0008:19:… CRUK0008  AKAP8           5 FALSE     FALSE     R1:0.25;…
    ##  5 CRUK0008:20:… CRUK0008  TAF4            5 FALSE     FALSE     R1:0.25;…
    ##  6 CRUK0008:5:1… CRUK0008  PCDHGA4         5 FALSE     FALSE     R1:0.25;…
    ##  7 CRUK0008:9:2… CRUK0008  VLDLR           5 FALSE     FALSE     R1:0.25;…
    ##  8 CRUK0008:13:… CRUK0008  POSTN           5 FALSE     FALSE     R1:0.25;…
    ##  9 CRUK0008:3:1… CRUK0008  CCDC80          5 FALSE     FALSE     R1:0.25;…
    ## 10 CRUK0008:19:… CRUK0008  MUC16           6 FALSE     FALSE     R1:0.05;…
    ## 11 CRUK0008:15:… CRUK0008  STARD9          6 FALSE     FALSE     R1:0.09;…
    ## 12 CRUK0008:1:8… CRUK0008  ZNHIT6          6 FALSE     FALSE     R1:0.05;…
    ## 13 CRUK0008:22:… CRUK0008  RNF185          6 FALSE     FALSE     R1:0.07;…
    ## 14 CRUK0008:17:… CRUK0008  TLK2            6 FALSE     FALSE     R1:0.09;…
    ## 15 CRUK0008:1:1… CRUK0008  GPSM2           6 FALSE     FALSE     R1:0.08;…
    ## 16 CRUK0008:20:… CRUK0008  ARFGEF2         6 FALSE     FALSE     R1:0.04;…
    ## # A tibble: 34 x 7
    ##    Misc        patientID variantID cluster is.driver is.clonal CCF        
    ##  * <chr>       <chr>     <chr>       <int> <lgl>     <lgl>     <chr>      
    ##  1 CRUK0009:1… CRUK0009  ZNF304         11 FALSE     FALSE     R1:0.94;R2…
    ##  2 CRUK0009:1… CRUK0009  DNAH17         11 FALSE     FALSE     R1:0.95;R2…
    ##  3 CRUK0009:2… CRUK0009  TM9SF4         11 FALSE     FALSE     R1:0.94;R2…
    ##  4 CRUK0009:9… CRUK0009  GCNT1          11 FALSE     FALSE     R1:0.94;R2…
    ##  5 CRUK0009:1… CRUK0009  SCUBE2         11 FALSE     FALSE     R1:0.94;R2…
    ##  6 CRUK0009:1… CRUK0009  HNRNPUL2       11 FALSE     FALSE     R1:0.94;R2…
    ##  7 CRUK0009:4… CRUK0009  NPFFR2         11 FALSE     FALSE     R1:0.95;R2…
    ##  8 CRUK0009:1… CRUK0009  PARD6G         11 FALSE     FALSE     R1:0.94;R2…
    ##  9 CRUK0009:7… CRUK0009  ADCK2          11 FALSE     FALSE     R1:0.94;R2…
    ## 10 CRUK0009:1… CRUK0009  EVI5L          12 FALSE     FALSE     R1:0.01;R2…
    ## # ... with 24 more rows
…
    ##  2 CRUK0010:1:… CRUK0010  INADL             4 FALSE     FALSE     R1:0.43…
    ##  3 CRUK0010:15… CRUK0010  CYP1A2            4 FALSE     FALSE     R1:0.37…
    ##  4 CRUK0010:8:… CRUK0010  MROH5             4 FALSE     FALSE     R1:0.38…
    ##  5 CRUK0010:14… CRUK0010  ATG2B             4 FALSE     FALSE     R1:0.36…
    ##  6 CRUK0010:12… CRUK0010  TSPAN8            5 FALSE     FALSE     R1:0.01…
    ##  7 CRUK0010:18… CRUK0010  MAPK4             5 FALSE     FALSE     R1:0.01…
    ##  8 CRUK0010:12… CRUK0010  B4GALNT1          5 FALSE     FALSE     R1:0.01…
    ##  9 CRUK0010:2:… CRUK0010  TNS1              6 FALSE     FALSE     R1:0.93…
    ## 10 CRUK0010:2:… CRUK0010  RAMP1             6 FALSE     FALSE     R1:0.93…
    ## 11 CRUK0010:2:… CRUK0010  LRRTM4            6 FALSE     FALSE     R1:0.92…
    ## 12 CRUK0010:2:… CRUK0010  KANSL3            6 FALSE     FALSE     R1:0.92…
    ## 13 CRUK0010:2:… CRUK0010  MMADHC            6 FALSE     FALSE     R1:0.91…
    ## 14 CRUK0010:2:… CRUK0010  FBXO41            6 FALSE     FALSE     R1:0.92…
    ## 15 CRUK0010:12… CRUK0010  SLC2A3            7 FALSE     FALSE     R1:0.24…
    ## # A tibble: 30 x 7
    ##    Misc         patientID variantID cluster is.driver is.clonal CCF       
    ##  * <chr>        <chr>     <chr>       <int> <lgl>     <lgl>     <chr>     
    ##  1 CRUK0011:1:… CRUK0011  EPS8L3         10 FALSE     FALSE     R1:0.92;R…
    ##  2 CRUK0011:4:… CRUK0011  POLN           10 FALSE     FALSE     R1:0.92;R…
    ##  3 CRUK0011:9:… CRUK0011  GNA14          10 FALSE     FALSE     R1:0.92;R…
    ##  4 CRUK0011:6:… CRUK0011  UBE3D          10 FALSE     FALSE     R1:0.92;R…
    ##  5 CRUK0011:15… CRUK0011  CYFIP1         10 FALSE     FALSE     R1:0.92;R…
    ##  6 CRUK0011:16… CRUK0011  JPH3           10 FALSE     FALSE     R1:0.92;R…
    ##  7 CRUK0011:16… CRUK0011  BANP           10 FALSE     FALSE     R1:0.92;R…
    ##  8 CRUK0011:9:… CRUK0011  PTPRD          11 FALSE     FALSE     R1:0.93;R…
    ##  9 CRUK0011:6:… CRUK0011  GRIK2          11 FALSE     FALSE     R1:0.92;R…
    ## 10 CRUK0011:10… CRUK0011  DNAJC9-A…      11 FALSE     FALSE     R1:0.91;R…
    ## # ... with 20 more rows
    ## # A tibble: 7 x 7
    ##   Misc           patientID variantID cluster is.driver is.clonal CCF      
    ## * <chr>          <chr>     <chr>       <int> <lgl>     <lgl>     <chr>    
    ## 1 CRUK0012:16:1… CRUK0012  BAIAP3          6 FALSE     FALSE     R1:0.68;…
    ## 2 CRUK0012:11:1… CRUK0012  SAA2-SAA4       7 FALSE     FALSE     R1:0.67;…
    ## 3 CRUK0012:6:41… CRUK0012  FOXP4           8 FALSE     FALSE     R1:0.61;…
    ## 4 CRUK0012:11:6… CRUK0012  PGA5            9 FALSE     FALSE     R1:0.65;…
    ## 5 CRUK0012:16:6… CRUK0012  SLC12A4        10 FALSE     FALSE     R1:0.59;…
    ## 6 CRUK0012:6:84… CRUK0012  RIPPLY2        11 FALSE     FALSE     R1:0.58;…
    ## 7 CRUK0012:14:7… CRUK0012  SMOC1          12 FALSE     FALSE     R1:0.11;…
    ## # A tibble: 42 x 7
    ##    Misc      patientID variantID  cluster is.driver is.clonal CCF         
    ##  * <chr>     <chr>     <chr>        <int> <lgl>     <lgl>     <chr>       
    ##  1 CRUK0013… CRUK0013  DNAH17           5 FALSE     FALSE     LN1:0.91;LN…
    ##  2 CRUK0013… CRUK0013  PTPRD            5 FALSE     FALSE     LN1:0.91;LN…
    ##  3 CRUK0013… CRUK0013  FOLR4            5 FALSE     FALSE     LN1:0.91;LN…
    ##  4 CRUK0013… CRUK0013  MSR1             5 FALSE     FALSE     LN1:0.91;LN…
    ##  5 CRUK0013… CRUK0013  ITGAV            5 FALSE     FALSE     LN1:0.91;LN…
    ##  6 CRUK0013… CRUK0013  ANKRD53          5 FALSE     FALSE     LN1:0.91;LN…
    ##  7 CRUK0013… CRUK0013  DMGDH            5 FALSE     FALSE     LN1:0.91;LN…
    ##  8 CRUK0013… CRUK0013  LRRC9            5 FALSE     FALSE     LN1:0.91;LN…
    ##  9 CRUK0013… CRUK0013  TMX3             5 FALSE     FALSE     LN1:0.91;LN…
    ## 10 CRUK0013… CRUK0013  RP11-452N…       5 FALSE     FALSE     LN1:0.91;LN…
    ## # ... with 32 more rows
    ## # A tibble: 4 x 7
    ##   Misc           patientID variantID cluster is.driver is.clonal CCF      
    ## * <chr>          <chr>     <chr>       <int> <lgl>     <lgl>     <chr>    
    ## 1 CRUK0014:14:7… CRUK0014  SMOC1           4 FALSE     FALSE     R1:0.16;…
    ## 2 CRUK0014:3:14… CRUK0014  ZIC4            4 FALSE     FALSE     R1:0.21;…
    ## 3 CRUK0014:13:4… CRUK0014  DGKH            4 FALSE     FALSE     R1:0.17;…
    ## 4 CRUK0014:4:20… CRUK0014  SLIT2           5 FALSE     FALSE     R1:0.95;…
    ## # A tibble: 21 x 7
    ##    Misc          patientID variantID cluster is.driver is.clonal CCF      
    ##  * <chr>         <chr>     <chr>       <int> <lgl>     <lgl>     <chr>    
    ##  1 CRUK0015:15:… CRUK0015  SIN3A           4 FALSE     FALSE     R1:0.56;…
    ##  2 CRUK0015:3:1… CRUK0015  PTPLB           4 FALSE     FALSE     R1:0.47;…
    ##  3 CRUK0015:11:… CRUK0015  B4GALNT4        4 FALSE     FALSE     R1:0.62;…
    ##  4 CRUK0015:20:… CRUK0015  PDYN            4 FALSE     FALSE     R1:0.43;…
    ##  5 CRUK0015:21:… CRUK0015  DOPEY2          4 FALSE     FALSE     R1:0.45;…
    ##  6 CRUK0015:18:… CRUK0015  EPG5            4 FALSE     FALSE     R1:0.46;…
    ##  7 CRUK0015:21:… CRUK0015  BRWD1           4 FALSE     FALSE     R1:0.44;…
    ##  8 CRUK0015:2:2… CRUK0015  C2orf57         4 FALSE     FALSE     R1:0.46;…
    ##  9 CRUK0015:19:… CRUK0015  ZNF677          4 FALSE     FALSE     R1:0.42;…
    ## 10 CRUK0015:3:1… CRUK0015  ARL14           5 FALSE     FALSE     R1:0.39;…
    ## # ... with 11 more rows
    ## # A tibble: 301 x 7
    ##    Misc          patientID variantID cluster is.driver is.clonal CCF      
    ##  * <chr>         <chr>     <chr>       <int> <lgl>     <lgl>     <chr>    
    ##  1 CRUK0016:9:8… CRUK0016  RASEF          13 FALSE     FALSE     R1:0.32;…
    ##  2 CRUK0016:8:8… CRUK0016  DCAF4L2        13 FALSE     FALSE     R1:0.33;…
    ##  3 CRUK0016:12:… CRUK0016  KDM5A          13 FALSE     FALSE     R1:0.32;…
    ##  4 CRUK0016:8:1… CRUK0016  TRPS1          13 FALSE     FALSE     R1:0.33;…
    ##  5 CRUK0016:8:1… CRUK0016  EPPK1          13 FALSE     FALSE     R1:0.31;…
    ##  6 CRUK0016:1:5… CRUK0016  OSBPL9         14 FALSE     FALSE     R1:0.23;…
    ##  7 CRUK0016:2:1… CRUK0016  CNTNAP5        15 FALSE     FALSE     R1:0.43;…
    ##  8 CRUK0016:9:1… CRUK0016  WDR34          17 FALSE     FALSE     R1:0.45;…
    ##  9 CRUK0016:20:… CRUK0016  TMC2           17 FALSE     FALSE     R1:0.45;…
    ## 10 CRUK0016:17:… CRUK0016  SMYD4          17 FALSE     FALSE     R1:0.45;…
    ## # ... with 291 more rows
    ## # A tibble: 49 x 7
    ##    Misc       patientID variantID cluster is.driver is.clonal CCF         
    ##  * <chr>      <chr>     <chr>       <int> <lgl>     <lgl>     <chr>       
    ##  1 CRUK0017:… CRUK0017  IL17REL        11 FALSE     FALSE     R1:0.01;R2:…
    ##  2 CRUK0017:… CRUK0017  TMPRSS11A      11 FALSE     FALSE     R1:0.01;R2:…
    ##  3 CRUK0017:… CRUK0017  WDR11          11 FALSE     FALSE     R1:0.01;R2:…
    ##  4 CRUK0017:… CRUK0017  TCN1           11 FALSE     FALSE     R1:0.09;R2:…
    ##  5 CRUK0017:… CRUK0017  MAP3K9         11 FALSE     FALSE     R1:0.01;R2:…
    ##  6 CRUK0017:… CRUK0017  NKD1           11 FALSE     FALSE     R1:0.15;R2:…
    ##  7 CRUK0017:… CRUK0017  GGTLC2         11 FALSE     FALSE     R1:0;R2:0.4…
    ##  8 CRUK0017:… CRUK0017  F5             11 FALSE     FALSE     R1:0.01;R2:…
    ##  9 CRUK0017:… CRUK0017  HTR6           12 FALSE     FALSE     R1:0;R2:0;R…
    ## 10 CRUK0017:… CRUK0017  C10orf55       12 FALSE     FALSE     R1:0;R2:0;R…
    ## # ... with 39 more rows
…
