…
    ## Loading objects:
    ##   test.set

``` r
names(test.set)
```

    ## [1] "data"          "clinical_data"

``` r
tibble::as.tibble(test.set$data)
```

    ## # A tibble: 1,752 x 7
    ##    `+8q` `-16q` `-17p` `+1q`  TP53 PIK3CA PIK3CA1
    ##    <dbl>  <dbl>  <dbl> <dbl> <dbl>  <dbl>   <dbl>
    ##  1     0      0      0     0     0      0       0
    ##  2     1      0      1     0     1      1       1
    ##  3     0      1      0     0     0      0       0
    ##  4     1      1      0     0     1      0       0
    ##  5     0      0      0     0     0      0       0
    ##  6     0      1      1     0     0      1       1
    ##  7     0      0      1     1     0      1       1
    ##  8     0      1      0     0     0      1       1
    ##  9     0      1      1     1     0      1       1
    ## 10     0      1      0     0     0      1       1
    ## # ... with 1,742 more rows

``` r
tibble::as.tibble(test.set$clinical_data)
```

    ## # A tibble: 2,805 x 5
    ##      AGE OS_MONTHS OS_STATUS INTCLUST PAM50      
    ##  * <dbl>     <dbl> <chr>     <chr>    <chr>      
    ##  1  75.6     140.  LIVING    4ER+     claudin-low
    ##  2  43.2      84.6 LIVING    4ER+     Luminal A  
    ##  3  48.9     163.  DECEASED  3        Luminal B  
    ##  4  47.7     165.  LIVING    9        Luminal B  
    ##  5  77.0      41.4 DECEASED  9        Luminal B  
    ##  6  78.8       7.8 DECEASED  7        Luminal B  
    ##  7  56.4     164.  LIVING    3        Luminal B  
    ##  8  70        22.4 DECEASED  4ER-     Normal     
    ##  9  89.1      99.5 DECEASED  3        claudin-low
    ## 10  86.4      36.6 DECEASED  9        Luminal B  
    ## # ... with 2,795 more rows
…
